DVEfiles/dve_gui.log
Chronologic VCS simulator copyright 1991-2022
Contains Synopsys proprietary information.
Compiler version T-2022.06_Full64; Runtime version T-2022.06_Full64;  Nov 16 13:01 2024
VCD+ Writer T-2022.06_Full64 Copyright (c) 1991-2022 by Synopsys Inc.
The file '/home/ecelrc/students/blui/vlsi1/lab3/rtl/inter.vpd' was opened successfully.
  0: xxxxxxxx
  1: xxxxxxxx
  2: xxxxxxxx
  3: xxxxxxxx
  4: xxxxxxxx
  5: xxxxxxxx
  6: xxxxxxxx
  7: xxxxxxxx
  8: xxxxxxxx
  9: xxxxxxxx
 10: xxxxxxxx
 11: xxxxxxxx
 12: xxxxxxxx
 13: xxxxxxxx
 14: xxxxxxxx
 15: xxxxxxxx
 16: xxxxxxxx
 17: xxxxxxxx
 18: xxxxxxxx
 19: xxxxxxxx
 20: xxxxxxxx
 21: xxxxxxxx
 22: xxxxxxxx
 23: xxxxxxxx
 24: xxxxxxxx
 25: xxxxxxxx
 26: xxxxxxxx
 27: xxxxxxxx
 28: xxxxxxxx
 29: xxxxxxxx
 30: xxxxxxxx
 31: xxxxxxxx
 32: xxxxxxxx
 33: xxxxxxxx
 34: xxxxxxxx
 35: xxxxxxxx
 36: xxxxxxxx
 37: xxxxxxxx
 38: xxxxxxxx
 39: xxxxxxxx
 40: xxxxxxxx
 41: xxxxxxxx
 42: xxxxxxxx
 43: xxxxxxxx
 44: xxxxxxxx
 45: xxxxxxxx
 46: xxxxxxxx
 47: xxxxxxxx
 48: xxxxxxxx
 49: xxxxxxxx
 50: xxxxxxxx
 51: xxxxxxxx
 52: xxxxxxxx
 53: xxxxxxxx
 54: xxxxxxxx
 55: xxxxxxxx
 56: xxxxxxxx
 57: xxxxxxxx
 58: xxxxxxxx
 59: xxxxxxxx
 60: xxxxxxxx
 61: xxxxxxxx
 62: xxxxxxxx
 63: xxxxxxxx
1000 s
cycle:           0 aBus: xxxxxxx  dBus:xxxxxxxx 
cycle:           0 aBus: 0000000  dBus:e3a0207a 
cycle:           1 aBus: 0000000  dBus:e3a0207a 
cycle:           2 aBus: 0000004  dBus:e3a0207a 
cycle:           3 aBus: 0000008  dBus:e3a00000 
cycle:           4 aBus: 000000c  dBus:e3a06010 
cycle:           5 aBus: 0000010  dBus:e3a07001 
cycle:           6 aBus: 0000014  dBus:e0808617 
cycle:           7 aBus: 0000018  dBus:e0879008 
2000 s
cycle:           8 aBus: 000001c  dBus:e3a00000 
cycle:           9 aBus: 0000020  dBus:zzzzzzzz 
cycle:          10 aBus: 0000020  dBus:e3a03028 
cycle:          11 aBus: 0000024  dBus:e4883000 
cycle:          12 aBus: 0000028  dBus:e3a040ff 
cycle:          13 aBus: 000002c  dBus:e3a050b7 
cycle:          14 aBus: 0010000  dBus:00000028 
cycle:          15 aBus: 0000030  dBus:e4884000 
3000 s
cycle:          16 aBus: 0000034  dBus:e4885000 
cycle:          17 aBus: 0000038  dBus:e4882000 
cycle:          18 aBus: 0010000  dBus:000000ff 
cycle:          19 aBus: 000003c  dBus:e4883000 
cycle:          20 aBus: 0010000  dBus:000000b7 
cycle:          21 aBus: 0000040  dBus:e4884000 
cycle:          22 aBus: 0010000  dBus:0000007a 
cycle:          23 aBus: 0000044  dBus:e3a07000 
4000 s
cycle:          24 aBus: 0010000  dBus:00000028 
cycle:          25 aBus: 0000048  dBus:e3a07000 
cycle:          26 aBus: 0010000  dBus:000000ff 
cycle:          27 aBus: 000004c  dBus:e3a07000 
cycle:          28 aBus: 0000050  dBus:e3a07000 
cycle:          29 aBus: 0000054  dBus:e3a07000 
cycle:          30 aBus: 0000058  dBus:e3a07000 
cycle:          31 aBus: 000005c  dBus:e3a07000 
cycle:          32 aBus: 0000060  dBus:e4990000 
5000 s
cycle:          33 aBus: 0000064  dBus:e3a07000 
cycle:          34 aBus: 0000068  dBus:e3a07000 
cycle:          35 aBus: 0010001  dBus:zzzzzzzz 
cycle:          36 aBus: 000006c  dBus:e3a07000 
cycle:          37 aBus: 000006c  dBus:e3a07000 
cycle:          38 aBus: 0000070  dBus:e3a07000 
cycle:          39 aBus: 0000074  dBus:e3a07000 
cycle:          40 aBus: 0000078  dBus:e3a07000 
6000 s
cycle:          41 aBus: 000007c  dBus:e3a07000 
cycle:          42 aBus: 0000080  dBus:e3a07000 
cycle:          43 aBus: 0000084  dBus:e4991000 
cycle:          44 aBus: 0000088  dBus:e3a07000 
cycle:          45 aBus: 000008c  dBus:e3a07000 
cycle:          46 aBus: 0010001  dBus:zzzzzzzz 
cycle:          47 aBus: 0000090  dBus:e3a07000 
cycle:          48 aBus: 0000090  dBus:e3a07000 
7000 s
cycle:          49 aBus: 0000094  dBus:e3a07000 
cycle:          50 aBus: 0000098  dBus:e3a07000 
cycle:          51 aBus: 000009c  dBus:e3a07000 
cycle:          52 aBus: 00000a0  dBus:e3a07000 
cycle:          53 aBus: 00000a4  dBus:e3a07000 
cycle:          54 aBus: 00000a8  dBus:e4992000 
cycle:          55 aBus: 00000ac  dBus:e3a07000 
cycle:          56 aBus: 00000b0  dBus:e3a07000 
cycle:          57 aBus: 0010001  dBus:zzzzzzzz 
8000 s
cycle:          58 aBus: 00000b4  dBus:e3a07000 
cycle:          59 aBus: 00000b4  dBus:e3a07000 
cycle:          60 aBus: 00000b8  dBus:e3a07000 
cycle:          61 aBus: 00000bc  dBus:e3a07000 
cycle:          62 aBus: 00000c0  dBus:e3a07000 
cycle:          63 aBus: 00000c4  dBus:e3a07000 
cycle:          64 aBus: 00000c8  dBus:e3a07000 
cycle:          65 aBus: 00000cc  dBus:e3a07000 
9000 s
cycle:          66 aBus: 00000d0  dBus:e3a07000 
cycle:          67 aBus: 00000d4  dBus:e3a07000 
cycle:          68 aBus: 00000d8  dBus:e3a07000 
cycle:          69 aBus: 00000dc  dBus:e3a07000 
cycle:          70 aBus: 00000e0  dBus:e3a07000 
cycle:          71 aBus: 00000e4  dBus:e4993000 
cycle:          72 aBus: 00000e8  dBus:e3a07000 
cycle:          73 aBus: 00000ec  dBus:e3a07000 
10000 s
cycle:          74 aBus: 0010001  dBus:zzzzzzzz 
cycle:          75 aBus: 00000f0  dBus:e3a07000 
cycle:          76 aBus: 00000f0  dBus:e3a07000 
cycle:          77 aBus: 00000f4  dBus:e3a07000 
cycle:          78 aBus: 00000f8  dBus:e3a07000 
cycle:          79 aBus: 00000fc  dBus:e3a07000 
cycle:          80 aBus: 0000100  dBus:e3a07000 
cycle:          81 aBus: 0000104  dBus:e3a07000 
cycle:          82 aBus: 0000108  dBus:e3a07000 
11000 s
cycle:          83 aBus: 000010c  dBus:e3a07000 
cycle:          84 aBus: 0000110  dBus:e3a07000 
cycle:          85 aBus: 0000114  dBus:e3a07000 
cycle:          86 aBus: 0000118  dBus:e3a07000 
cycle:          87 aBus: 000011c  dBus:e3a07000 
cycle:          88 aBus: 0000120  dBus:e4994000 
cycle:          89 aBus: 0000124  dBus:e3a07000 
cycle:          90 aBus: 0000128  dBus:e3a07000 
12000 s
cycle:          91 aBus: 0010001  dBus:zzzzzzzz 
cycle:          92 aBus: 000012c  dBus:e3a07000 
cycle:          93 aBus: 000012c  dBus:e3a07000 
cycle:          94 aBus: 0000130  dBus:e3a07000 
cycle:          95 aBus: 0000134  dBus:e3a07000 
cycle:          96 aBus: 0000138  dBus:e3a07000 
cycle:          97 aBus: 000013c  dBus:e3a07000 
cycle:          98 aBus: 0000140  dBus:e3a07000 
13000 s
cycle:          99 aBus: 0000144  dBus:e4995000 
cycle:         100 aBus: 0000148  dBus:e3a07000 
cycle:         101 aBus: 000014c  dBus:e3a07000 
cycle:         102 aBus: 0010001  dBus:zzzzzzzz 
cycle:         103 aBus: 0000150  dBus:e3a07000 
cycle:         104 aBus: 0000150  dBus:e3a07000 
cycle:         105 aBus: 0000154  dBus:e3a07000 
cycle:         106 aBus: 0000158  dBus:e3a07000 
cycle:         107 aBus: 000015c  dBus:e3a07000 
14000 s
cycle:         108 aBus: 0000160  dBus:e3a07000 
cycle:         109 aBus: 0000164  dBus:e3a07000 
cycle:         110 aBus: 0000168  dBus:e4996000 
cycle:         111 aBus: 000016c  dBus:eafffffe 
cycle:         112 aBus: 0000170  dBus:xxxxxxxx 
cycle:         113 aBus: 0010001  dBus:zzzzzzzz 
cycle:         114 aBus: 0000174  dBus:xxxxxxxx 
cycle:         115 aBus: 0000174  dBus:xxxxxxxx 
15000 s
cycle:         116 aBus: 000016c  dBus:eafffffe 
cycle:         117 aBus: 0000170  dBus:xxxxxxxx 
cycle:         118 aBus: 0000174  dBus:xxxxxxxx 
cycle:         119 aBus: 000016c  dBus:eafffffe 
cycle:         120 aBus: 0000170  dBus:xxxxxxxx 
cycle:         121 aBus: 0000174  dBus:xxxxxxxx 
cycle:         122 aBus: 000016c  dBus:eafffffe 
cycle:         123 aBus: 0000170  dBus:xxxxxxxx 
16000 s
cycle:         124 aBus: 0000174  dBus:xxxxxxxx 
cycle:         125 aBus: 000016c  dBus:eafffffe 
cycle:         126 aBus: 0000170  dBus:xxxxxxxx 
cycle:         127 aBus: 0000174  dBus:xxxxxxxx 
cycle:         128 aBus: 000016c  dBus:eafffffe 
cycle:         129 aBus: 0000170  dBus:xxxxxxxx 
cycle:         130 aBus: 0000174  dBus:xxxxxxxx 
cycle:         131 aBus: 000016c  dBus:eafffffe 
cycle:         132 aBus: 0000170  dBus:xxxxxxxx 
17000 s
cycle:         133 aBus: 0000174  dBus:xxxxxxxx 
cycle:         134 aBus: 000016c  dBus:eafffffe 
cycle:         135 aBus: 0000170  dBus:xxxxxxxx 
cycle:         136 aBus: 0000174  dBus:xxxxxxxx 
cycle:         137 aBus: 000016c  dBus:eafffffe 
cycle:         138 aBus: 0000170  dBus:xxxxxxxx 
cycle:         139 aBus: 0000174  dBus:xxxxxxxx 
cycle:         140 aBus: 000016c  dBus:eafffffe 
18000 s
cycle:         141 aBus: 0000170  dBus:xxxxxxxx 
cycle:         142 aBus: 0000174  dBus:xxxxxxxx 
cycle:         143 aBus: 000016c  dBus:eafffffe 
cycle:         144 aBus: 0000170  dBus:xxxxxxxx 
cycle:         145 aBus: 0000174  dBus:xxxxxxxx 
cycle:         146 aBus: 000016c  dBus:eafffffe 
cycle:         147 aBus: 0000170  dBus:xxxxxxxx 
cycle:         148 aBus: 0000174  dBus:xxxxxxxx 
19000 s
cycle:         149 aBus: 000016c  dBus:eafffffe 
cycle:         150 aBus: 0000170  dBus:xxxxxxxx 
cycle:         151 aBus: 0000174  dBus:xxxxxxxx 
cycle:         152 aBus: 000016c  dBus:eafffffe 
cycle:         153 aBus: 0000170  dBus:xxxxxxxx 
cycle:         154 aBus: 0000174  dBus:xxxxxxxx 
cycle:         155 aBus: 000016c  dBus:eafffffe 
cycle:         156 aBus: 0000170  dBus:xxxxxxxx 
cycle:         157 aBus: 0000174  dBus:xxxxxxxx 
Chronologic VCS simulator copyright 1991-2022
Contains Synopsys proprietary information.
Compiler version T-2022.06_Full64; Runtime version T-2022.06_Full64;  Nov 16 13:02 2024
VCD+ Writer T-2022.06_Full64 Copyright (c) 1991-2022 by Synopsys Inc.
The file '/home/ecelrc/students/blui/vlsi1/lab3/rtl/inter.vpd' was opened successfully.
  0: xxxxxxxx
  1: xxxxxxxx
  2: xxxxxxxx
  3: xxxxxxxx
  4: xxxxxxxx
  5: xxxxxxxx
  6: xxxxxxxx
  7: xxxxxxxx
  8: xxxxxxxx
  9: xxxxxxxx
 10: xxxxxxxx
 11: xxxxxxxx
 12: xxxxxxxx
 13: xxxxxxxx
 14: xxxxxxxx
 15: xxxxxxxx
 16: xxxxxxxx
 17: xxxxxxxx
 18: xxxxxxxx
 19: xxxxxxxx
 20: xxxxxxxx
 21: xxxxxxxx
 22: xxxxxxxx
 23: xxxxxxxx
 24: xxxxxxxx
 25: xxxxxxxx
 26: xxxxxxxx
 27: xxxxxxxx
 28: xxxxxxxx
 29: xxxxxxxx
 30: xxxxxxxx
 31: xxxxxxxx
 32: xxxxxxxx
 33: xxxxxxxx
 34: xxxxxxxx
 35: xxxxxxxx
 36: xxxxxxxx
 37: xxxxxxxx
 38: xxxxxxxx
 39: xxxxxxxx
 40: xxxxxxxx
 41: xxxxxxxx
 42: xxxxxxxx
 43: xxxxxxxx
 44: xxxxxxxx
 45: xxxxxxxx
 46: xxxxxxxx
 47: xxxxxxxx
 48: xxxxxxxx
 49: xxxxxxxx
 50: xxxxxxxx
 51: xxxxxxxx
 52: xxxxxxxx
 53: xxxxxxxx
 54: xxxxxxxx
 55: xxxxxxxx
 56: xxxxxxxx
 57: xxxxxxxx
 58: xxxxxxxx
 59: xxxxxxxx
 60: xxxxxxxx
 61: xxxxxxxx
 62: xxxxxxxx
 63: xxxxxxxx
1000 s
cycle:           0 aBus: xxxxxxx  dBus:xxxxxxxx 
cycle:           0 aBus: 0000000  dBus:e3a0207a 
cycle:           1 aBus: 0000000  dBus:e3a0207a 
cycle:           2 aBus: 0000004  dBus:e3a0207a 
cycle:           3 aBus: 0000008  dBus:e3a00000 
cycle:           4 aBus: 000000c  dBus:e3a06010 
cycle:           5 aBus: 0000010  dBus:e3a07001 
cycle:           6 aBus: 0000014  dBus:e0808617 
cycle:           7 aBus: 0000018  dBus:e0879008 
2000 s
cycle:           8 aBus: 000001c  dBus:e3a00000 
cycle:           9 aBus: 0000020  dBus:zzzzzzzz 
cycle:          10 aBus: 0000020  dBus:e3a03028 
cycle:          11 aBus: 0000024  dBus:e4883000 
cycle:          12 aBus: 0000028  dBus:e3a040ff 
cycle:          13 aBus: 000002c  dBus:e3a050b7 
cycle:          14 aBus: 0010000  dBus:00000028 
cycle:          15 aBus: 0000030  dBus:e4884000 
3000 s
cycle:          16 aBus: 0000034  dBus:e4885000 
cycle:          17 aBus: 0000038  dBus:e4882000 
cycle:          18 aBus: 0010000  dBus:000000ff 
cycle:          19 aBus: 000003c  dBus:e4883000 
cycle:          20 aBus: 0010000  dBus:000000b7 
cycle:          21 aBus: 0000040  dBus:e4884000 
cycle:          22 aBus: 0010000  dBus:0000007a 
cycle:          23 aBus: 0000044  dBus:e3a07000 
4000 s
cycle:          24 aBus: 0010000  dBus:00000028 
cycle:          25 aBus: 0000048  dBus:e3a07000 
cycle:          26 aBus: 0010000  dBus:000000ff 
cycle:          27 aBus: 000004c  dBus:e3a07000 
cycle:          28 aBus: 0000050  dBus:e3a07000 
cycle:          29 aBus: 0000054  dBus:e3a07000 
cycle:          30 aBus: 0000058  dBus:e3a07000 
cycle:          31 aBus: 000005c  dBus:e3a07000 
cycle:          32 aBus: 0000060  dBus:e4990000 
5000 s
cycle:          33 aBus: 0000064  dBus:e3a07000 
cycle:          34 aBus: 0000068  dBus:e3a07000 
cycle:          35 aBus: 0010001  dBus:zzzzzzzz 
cycle:          36 aBus: 000006c  dBus:e3a07000 
cycle:          37 aBus: 000006c  dBus:e3a07000 
cycle:          38 aBus: 0000070  dBus:e3a07000 
cycle:          39 aBus: 0000074  dBus:e3a07000 
cycle:          40 aBus: 0000078  dBus:e3a07000 
6000 s
cycle:          41 aBus: 000007c  dBus:e3a07000 
cycle:          42 aBus: 0000080  dBus:e3a07000 
cycle:          43 aBus: 0000084  dBus:e4991000 
cycle:          44 aBus: 0000088  dBus:e3a07000 
cycle:          45 aBus: 000008c  dBus:e3a07000 
cycle:          46 aBus: 0010001  dBus:zzzzzzzz 
cycle:          47 aBus: 0000090  dBus:e3a07000 
cycle:          48 aBus: 0000090  dBus:e3a07000 
7000 s
cycle:          49 aBus: 0000094  dBus:e3a07000 
cycle:          50 aBus: 0000098  dBus:e3a07000 
cycle:          51 aBus: 000009c  dBus:e3a07000 
cycle:          52 aBus: 00000a0  dBus:e3a07000 
cycle:          53 aBus: 00000a4  dBus:e3a07000 
cycle:          54 aBus: 00000a8  dBus:e4992000 
cycle:          55 aBus: 00000ac  dBus:e3a07000 
cycle:          56 aBus: 00000b0  dBus:e3a07000 
cycle:          57 aBus: 0010001  dBus:zzzzzzzz 
8000 s
cycle:          58 aBus: 00000b4  dBus:e3a07000 
cycle:          59 aBus: 00000b4  dBus:e3a07000 
cycle:          60 aBus: 00000b8  dBus:e3a07000 
cycle:          61 aBus: 00000bc  dBus:e3a07000 
cycle:          62 aBus: 00000c0  dBus:e3a07000 
cycle:          63 aBus: 00000c4  dBus:e3a07000 
cycle:          64 aBus: 00000c8  dBus:e3a07000 
cycle:          65 aBus: 00000cc  dBus:e3a07000 
9000 s
cycle:          66 aBus: 00000d0  dBus:e3a07000 
cycle:          67 aBus: 00000d4  dBus:e3a07000 
cycle:          68 aBus: 00000d8  dBus:e3a07000 
cycle:          69 aBus: 00000dc  dBus:e3a07000 
cycle:          70 aBus: 00000e0  dBus:e3a07000 
cycle:          71 aBus: 00000e4  dBus:e4993000 
cycle:          72 aBus: 00000e8  dBus:e3a07000 
cycle:          73 aBus: 00000ec  dBus:e3a07000 
10000 s
cycle:          74 aBus: 0010001  dBus:zzzzzzzz 
cycle:          75 aBus: 00000f0  dBus:e3a07000 
cycle:          76 aBus: 00000f0  dBus:e3a07000 
cycle:          77 aBus: 00000f4  dBus:e3a07000 
cycle:          78 aBus: 00000f8  dBus:e3a07000 
cycle:          79 aBus: 00000fc  dBus:e3a07000 
cycle:          80 aBus: 0000100  dBus:e3a07000 
cycle:          81 aBus: 0000104  dBus:e3a07000 
cycle:          82 aBus: 0000108  dBus:e3a07000 
11000 s
cycle:          83 aBus: 000010c  dBus:e3a07000 
cycle:          84 aBus: 0000110  dBus:e3a07000 
cycle:          85 aBus: 0000114  dBus:e3a07000 
cycle:          86 aBus: 0000118  dBus:e3a07000 
cycle:          87 aBus: 000011c  dBus:e3a07000 
cycle:          88 aBus: 0000120  dBus:e4994000 
cycle:          89 aBus: 0000124  dBus:e3a07000 
cycle:          90 aBus: 0000128  dBus:e3a07000 
12000 s
cycle:          91 aBus: 0010001  dBus:zzzzzzzz 
cycle:          92 aBus: 000012c  dBus:e3a07000 
cycle:          93 aBus: 000012c  dBus:e3a07000 
cycle:          94 aBus: 0000130  dBus:e3a07000 
cycle:          95 aBus: 0000134  dBus:e3a07000 
cycle:          96 aBus: 0000138  dBus:e3a07000 
cycle:          97 aBus: 000013c  dBus:e3a07000 
cycle:          98 aBus: 0000140  dBus:e3a07000 
13000 s
cycle:          99 aBus: 0000144  dBus:e4995000 
cycle:         100 aBus: 0000148  dBus:e3a07000 
cycle:         101 aBus: 000014c  dBus:e3a07000 
cycle:         102 aBus: 0010001  dBus:zzzzzzzz 
cycle:         103 aBus: 0000150  dBus:e3a07000 
cycle:         104 aBus: 0000150  dBus:e3a07000 
cycle:         105 aBus: 0000154  dBus:e3a07000 
cycle:         106 aBus: 0000158  dBus:e3a07000 
cycle:         107 aBus: 000015c  dBus:e3a07000 
14000 s
cycle:         108 aBus: 0000160  dBus:e3a07000 
cycle:         109 aBus: 0000164  dBus:e3a07000 
cycle:         110 aBus: 0000168  dBus:e4996000 
cycle:         111 aBus: 000016c  dBus:eafffffe 
cycle:         112 aBus: 0000170  dBus:xxxxxxxx 
cycle:         113 aBus: 0010001  dBus:zzzzzzzz 
cycle:         114 aBus: 0000174  dBus:xxxxxxxx 
cycle:         115 aBus: 0000174  dBus:xxxxxxxx 
15000 s
cycle:         116 aBus: 000016c  dBus:eafffffe 
cycle:         117 aBus: 0000170  dBus:xxxxxxxx 
cycle:         118 aBus: 0000174  dBus:xxxxxxxx 
cycle:         119 aBus: 000016c  dBus:eafffffe 
cycle:         120 aBus: 0000170  dBus:xxxxxxxx 
cycle:         121 aBus: 0000174  dBus:xxxxxxxx 
cycle:         122 aBus: 000016c  dBus:eafffffe 
cycle:         123 aBus: 0000170  dBus:xxxxxxxx 
16000 s
cycle:         124 aBus: 0000174  dBus:xxxxxxxx 
cycle:         125 aBus: 000016c  dBus:eafffffe 
cycle:         126 aBus: 0000170  dBus:xxxxxxxx 
cycle:         127 aBus: 0000174  dBus:xxxxxxxx 
cycle:         128 aBus: 000016c  dBus:eafffffe 
cycle:         129 aBus: 0000170  dBus:xxxxxxxx 
cycle:         130 aBus: 0000174  dBus:xxxxxxxx 
cycle:         131 aBus: 000016c  dBus:eafffffe 
cycle:         132 aBus: 0000170  dBus:xxxxxxxx 
